{
  "albumDetails": {
    "albumName": "album name",
    "totalImages": 56,
    "publishDate": "3rd July 2017",
    "totalViews": 1230,
    "loadMore": true
  },
  "images": [
    {
      "path": "../assets/images/gallery/600x900.png",
      "pathThumb": "../assets/images/gallery/140x225.png",
      "name": "600x900.png",
      "nameThumb": "140x225",
      "caption": "This is the image caption for number 21",
      "number": 21,
      "width": 299,
      "height": 500
    },
    {
      "path": "../assets/images/gallery/900x600.png",
      "pathThumb": "../assets/images/gallery/225x140.png",
      "name": "900x600.png",
      "nameThumb": "225x140",
      "caption": "This is the image caption for number 22",
      "number": 22,
      "width": 299,
      "height": 500
    },
    {
      "path": "../assets/images/gallery/601x901.png",
      "pathThumb": "../assets/images/gallery/141x226.png",
      "name": "601x901.png",
      "nameThumb": "141x226",
      "caption": "This is the image caption for number 23",
      "number": 23,
      "width": 299,
      "height": 500
    },
    {
      "path": "../assets/images/gallery/901x601.png",
      "pathThumb": "../assets/images/gallery/226x141.png",
      "name": "901x601.png",
      "nameThumb": "226x141",
      "caption": "This is the image caption for number 24",
      "number": 24,
      "width": 299,
      "height": 500
    },
    {
      "path": "../assets/images/gallery/602x902.png",
      "pathThumb": "../assets/images/gallery/142x227.png",
      "name": "602x902.png",
      "nameThumb": "142x227",
      "caption": "This is the image caption for number 25",
      "number": 25,
      "width": 299,
      "height": 500
    },
    {
      "path": "../assets/images/gallery/902x602.png",
      "pathThumb": "../assets/images/gallery/226x144.png",
      "name": "902x602.png",
      "nameThumb": "226x144",
      "caption": "This is the image caption for number 26",
      "number": 26,
      "width": 299,
      "height": 500
    },
    {
      "path": "../assets/images/gallery/603x903.png",
      "pathThumb": "../assets/images/gallery/144x230.png",
      "name": "603x903.png",
      "nameThumb": "144x230",
      "caption": "This is the image caption for number 27",
      "number": 27,
      "width": 299,
      "height": 500
    },
    {
      "path": "../assets/images/gallery/903x603.png",
      "pathThumb": "../assets/images/gallery/227x142.png",
      "name": "903x603.png",
      "nameThumb": "227x142",
      "caption": "This is the image caption for number 28",
      "number": 28,
      "width": 299,
      "height": 500
    },
    {
      "path": "../assets/images/gallery/600x900.png",
      "pathThumb": "../assets/images/gallery/140x225.png",
      "name": "600x900.png",
      "nameThumb": "140x225",
      "caption": "This is the image caption for number 29",
      "number": 29,
      "width": 299,
      "height": 500
    },
    {
      "path": "../assets/images/gallery/900x600.png",
      "pathThumb": "../assets/images/gallery/225x140.png",
      "name": "900x600.png",
      "nameThumb": "225x140",
      "caption": "This is the image caption for number 30",
      "number": 30,
      "width": 299,
      "height": 500
    },
    {
      "path": "../assets/images/gallery/601x901.png",
      "pathThumb": "../assets/images/gallery/141x226.png",
      "name": "601x901.png",
      "nameThumb": "141x226",
      "caption": "This is the image caption for number 31",
      "number": 31,
      "width": 299,
      "height": 500
    },
    {
      "path": "../assets/images/gallery/901x601.png",
      "pathThumb": "../assets/images/gallery/226x141.png",
      "name": "901x601.png",
      "nameThumb": "226x141",
      "caption": "This is the image caption for number 32",
      "number": 32,
      "width": 299,
      "height": 500
    },
    {
      "path": "../assets/images/gallery/602x902.png",
      "pathThumb": "../assets/images/gallery/142x227.png",
      "name": "602x902.png",
      "nameThumb": "142x227",
      "caption": "This is the image caption for number 33",
      "number": 33,
      "width": 299,
      "height": 500
    },
    {
      "path": "../assets/images/gallery/902x602.png",
      "pathThumb": "../assets/images/gallery/226x144.png",
      "name": "902x602.png",
      "nameThumb": "226x144",
      "caption": "This is the image caption for number 34",
      "number": 34,
      "width": 299,
      "height": 500
    },
    {
      "path": "../assets/images/gallery/603x903.png",
      "pathThumb": "../assets/images/gallery/144x230.png",
      "name": "603x903.png",
      "nameThumb": "144x230",
      "caption": "This is the image caption for number 35",
      "number": 35,
      "width": 299,
      "height": 500
    },
    {
      "path": "../assets/images/gallery/903x603.png",
      "pathThumb": "../assets/images/gallery/227x142.png",
      "name": "903x603.png",
      "nameThumb": "227x142",
      "caption": "This is the image caption for number 36",
      "number": 36,
      "width": 299,
      "height": 500
    },
    {
      "path": "../assets/images/gallery/600x900.png",
      "pathThumb": "../assets/images/gallery/140x225.png",
      "name": "600x900.png",
      "nameThumb": "140x225",
      "caption": "This is the image caption for number 37",
      "number": 37,
      "width": 299,
      "height": 500
    },
    {
      "path": "../assets/images/gallery/900x600.png",
      "pathThumb": "../assets/images/gallery/225x140.png",
      "name": "900x600.png",
      "nameThumb": "225x140",
      "caption": "This is the image caption for number 38",
      "number": 38,
      "width": 299,
      "height": 500
    },
    {
      "path": "../assets/images/gallery/601x901.png",
      "pathThumb": "../assets/images/gallery/141x226.png",
      "name": "601x901.png",
      "nameThumb": "141x226",
      "caption": "This is the image caption for number 39",
      "number": 39,
      "width": 299,
      "height": 500
    },
    {
      "path": "../assets/images/gallery/901x601.png",
      "pathThumb": "../assets/images/gallery/226x141.png",
      "name": "901x601.png",
      "nameThumb": "226x141",
      "caption": "This is the image caption for number 40",
      "number": 40,
      "width": 299,
      "height": 500
    }
  ]
}
